{
    "editor.fontFamily": "'JetBrains Mono'",
    "window.menuBarVisibility": "toggle",
    "vim.easymotion": true,
    "vim.useSystemClipboard": true,
    "workbench.iconTheme": "vscode-icons",
    "keyboard.dispatch": "keyCode",
    "vspacecode.bindingOverrides": [
        {
            "keys": " ",
            "name": "Find file in project",
            "icon": "file",
            "type": "command",
            "command": "workbench.action.quickOpen"
        },
        {
            "keys": ":",
            "name": "Commands",
            "icon": "rocket",
            "type": "command",
            "command": "workbench.action.showCommands",
            "position": 1
        },
		{
			"keys": "b.l",
			"name": "Last buffer",
			"icon": "go-to-file",
			"type": "commands",
			"commands": [
				"workbench.action.quickOpenPreviousRecentlyUsedEditorInGroup",
				"list.select"
			]
		},
        {
            "keys": "b.k",
            "name": "Close active buffer",
            "icon": "x",
            "type": "command",
            "command": "workbench.action.closeActiveEditor"
        },
        {
            "keys": "g.g",
            "name": "Status",
            "icon": "preview",
            "type": "command",
            "command": "magit.status"
        },
        {
            "keys": "g.s",
            "position": -1
        },
        {
            "keys": "b.d",
            "position": -1
        },
        {
            "keys": "b.h",
            "position": -1
        },
        {
            "keys": "b.j",
            "position": -1
        },
        {
            "keys": "\t",
            "position": -1
        },
    ],
    "editor.minimap.enabled": false,
    "editor.lineNumbers": "off",
    "workbench.colorTheme": "Night Owl Light",
    "latex-workshop.view.pdf.viewer": "external",
    "workbench.editorAssociations": {
        "*.ipynb": "jupyter-notebook"
    },
    "git.confirmSync": false,
    "vsicons.dontShowNewVersionMessage": true,
    "gitlens.hovers.currentLine.over": "line",
    "editor.suggestSelection": "first",
    "vsintellicode.modify.editor.suggestSelection": "automaticallyOverrodeDefaultValue",
    "telemetry.enableTelemetry": false,
    "telemetry.enableCrashReporter": false,
    "notebook.cellToolbarLocation": {
        "default": "right",
        "jupyter-notebook": "left"
    },
    "gitlens.currentLine.enabled": false,
    "gitlens.codeLens.enabled": false,
    "extensions.ignoreRecommendations": true,
    "[javascript]": {
        "editor.defaultFormatter": "esbenp.prettier-vscode"
    },
    "zenMode.fullScreen": false,
    "debug.javascript.autoAttachFilter": "always",
    "javascript.updateImportsOnFileMove.enabled": "always",
    "dart.showInspectorNotificationsForWidgetErrors": false,
    "typescript.updateImportsOnFileMove.enabled": "always"
}